waveforms/task5_p5.vcd
$date
	Tue Mar 31 06:36:38 2026
$end
$version
	Icarus Verilog
$end
$timescale
	1ps
$end
$scope module tb_task5_p5 $end
$var wire 16 ! x_out [15:0] $end
$var wire 16 " embed_w [15:0] $end
$var reg 1 # clk $end
$var reg 1 $ rst $end
$var reg 8 % token_id [7:0] $end
$var reg 16 & w1 [15:0] $end
$var reg 16 ' w2 [15:0] $end
$var reg 16 ( w_out [15:0] $end
$var reg 64 ) wk_all [63:0] $end
$var reg 64 * wq_all [63:0] $end
$var reg 64 + wv_all [63:0] $end
$scope module B0 $end
$var wire 1 # clk $end
$var wire 16 , res1 [15:0] $end
$var wire 1 $ rst $end
$var wire 16 - w1 [15:0] $end
$var wire 16 . w2 [15:0] $end
$var wire 16 / w_out [15:0] $end
$var wire 64 0 wk_all [63:0] $end
$var wire 64 1 wq_all [63:0] $end
$var wire 64 2 wv_all [63:0] $end
$var wire 16 3 x_in [15:0] $end
$var wire 16 4 x_out [15:0] $end
$var wire 16 5 x_norm1 [15:0] $end
$var wire 16 6 res1_norm [15:0] $end
$var wire 16 7 ffn_out [15:0] $end
$var wire 16 8 attn_out [15:0] $end
$var reg 17 9 add1_wide [16:0] $end
$var reg 17 : add2_wide [16:0] $end
$var reg 16 ; res1_sat [15:0] $end
$var reg 16 < x_out_sat [15:0] $end
$scope module ATN $end
$var wire 1 # clk $end
$var wire 1 $ rst $end
$var wire 16 = w_out [15:0] $end
$var wire 64 > wk_all [63:0] $end
$var wire 64 ? wq_all [63:0] $end
$var wire 64 @ wv_all [63:0] $end
$var wire 16 A x_in [15:0] $end
$var wire 5 B rd_addr [4:0] $end
$var wire 16 C proj_out [15:0] $end
$var wire 16 D head_avg [15:0] $end
$var reg 16 E attn_out [15:0] $end
$var reg 25 F head_sum [24:0] $end
$var reg 5 G tok_cnt [4:0] $end
$var integer 32 H i [31:0] $end
$scope begin HEADS[0] $end
$var wire 16 I soft_h [15:0] $end
$scope module CACHE $end
$var wire 1 # clk $end
$var wire 16 J k_out [15:0] $end
$var wire 5 K rd_addr [4:0] $end
$var wire 16 L v_out [15:0] $end
$var wire 5 M wr_addr [4:0] $end
$var wire 1 N wr_en $end
$var wire 16 O v_in [15:0] $end
$var wire 16 P k_in [15:0] $end
$var integer 32 Q i [31:0] $end
$upscope $end
$scope module KP $end
$var wire 16 R b [15:0] $end
$var wire 16 S a [15:0] $end
$var reg 32 T full [31:0] $end
$var reg 16 U result [15:0] $end
$var reg 32 V shifted [31:0] $end
$upscope $end
$scope module QP $end
$var wire 16 W b [15:0] $end
$var wire 16 X a [15:0] $end
$var reg 32 Y full [31:0] $end
$var reg 16 Z result [15:0] $end
$var reg 32 [ shifted [31:0] $end
$upscope $end
$scope module SCORE $end
$var wire 16 \ a [15:0] $end
$var wire 16 ] b [15:0] $end
$var reg 32 ^ full [31:0] $end
$var reg 16 _ result [15:0] $end
$var reg 32 ` shifted [31:0] $end
$upscope $end
$scope module VP $end
$var wire 16 a b [15:0] $end
$var wire 16 b a [15:0] $end
$var reg 32 c full [31:0] $end
$var reg 16 d result [15:0] $end
$var reg 32 e shifted [31:0] $end
$upscope $end
$scope module WV $end
$var wire 16 f a [15:0] $end
$var wire 16 g b [15:0] $end
$var reg 32 h full [31:0] $end
$var reg 16 i result [15:0] $end
$var reg 32 j shifted [31:0] $end
$upscope $end
$upscope $end
$scope begin HEADS[1] $end
$var wire 16 k soft_h [15:0] $end
$scope module CACHE $end
$var wire 1 # clk $end
$var wire 16 l k_out [15:0] $end
$var wire 5 m rd_addr [4:0] $end
$var wire 16 n v_out [15:0] $end
$var wire 5 o wr_addr [4:0] $end
$var wire 1 p wr_en $end
$var wire 16 q v_in [15:0] $end
$var wire 16 r k_in [15:0] $end
$var integer 32 s i [31:0] $end
$upscope $end
$scope module KP $end
$var wire 16 t b [15:0] $end
$var wire 16 u a [15:0] $end
$var reg 32 v full [31:0] $end
$var reg 16 w result [15:0] $end
$var reg 32 x shifted [31:0] $end
$upscope $end
$scope module QP $end
$var wire 16 y b [15:0] $end
$var wire 16 z a [15:0] $end
$var reg 32 { full [31:0] $end
$var reg 16 | result [15:0] $end
$var reg 32 } shifted [31:0] $end
$upscope $end
$scope module SCORE $end
$var wire 16 ~ a [15:0] $end
$var wire 16 !" b [15:0] $end
$var reg 32 "" full [31:0] $end
$var reg 16 #" result [15:0] $end
$var reg 32 $" shifted [31:0] $end
$upscope $end
$scope module VP $end
$var wire 16 %" b [15:0] $end
$var wire 16 &" a [15:0] $end
$var reg 32 '" full [31:0] $end
$var reg 16 (" result [15:0] $end
$var reg 32 )" shifted [31:0] $end
$upscope $end
$scope module WV $end
$var wire 16 *" a [15:0] $end
$var wire 16 +" b [15:0] $end
$var reg 32 ," full [31:0] $end
$var reg 16 -" result [15:0] $end
$var reg 32 ." shifted [31:0] $end
$upscope $end
$upscope $end
$scope begin HEADS[2] $end
$var wire 16 /" soft_h [15:0] $end
$scope module CACHE $end
$var wire 1 # clk $end
$var wire 16 0" k_out [15:0] $end
$var wire 5 1" rd_addr [4:0] $end
$var wire 16 2" v_out [15:0] $end
$var wire 5 3" wr_addr [4:0] $end
$var wire 1 4" wr_en $end
$var wire 16 5" v_in [15:0] $end
$var wire 16 6" k_in [15:0] $end
$var integer 32 7" i [31:0] $end
$upscope $end
$scope module KP $end
$var wire 16 8" b [15:0] $end
$var wire 16 9" a [15:0] $end
$var reg 32 :" full [31:0] $end
$var reg 16 ;" result [15:0] $end
$var reg 32 <" shifted [31:0] $end
$upscope $end
$scope module QP $end
$var wire 16 =" b [15:0] $end
$var wire 16 >" a [15:0] $end
$var reg 32 ?" full [31:0] $end
$var reg 16 @" result [15:0] $end
$var reg 32 A" shifted [31:0] $end
$upscope $end
$scope module SCORE $end
$var wire 16 B" a [15:0] $end
$var wire 16 C" b [15:0] $end
$var reg 32 D" full [31:0] $end
$var reg 16 E" result [15:0] $end
$var reg 32 F" shifted [31:0] $end
$upscope $end
$scope module VP $end
$var wire 16 G" b [15:0] $end
$var wire 16 H" a [15:0] $end
$var reg 32 I" full [31:0] $end
$var reg 16 J" result [15:0] $end
$var reg 32 K" shifted [31:0] $end
$upscope $end
$scope module WV $end
$var wire 16 L" a [15:0] $end
$var wire 16 M" b [15:0] $end
$var reg 32 N" full [31:0] $end
$var reg 16 O" result [15:0] $end
$var reg 32 P" shifted [31:0] $end
$upscope $end
$upscope $end
$scope begin HEADS[3] $end
$var wire 16 Q" soft_h [15:0] $end
$scope module CACHE $end
$var wire 1 # clk $end
$var wire 16 R" k_out [15:0] $end
$var wire 5 S" rd_addr [4:0] $end
$var wire 16 T" v_out [15:0] $end
$var wire 5 U" wr_addr [4:0] $end
$var wire 1 V" wr_en $end
$var wire 16 W" v_in [15:0] $end
$var wire 16 X" k_in [15:0] $end
$var integer 32 Y" i [31:0] $end
$upscope $end
$scope module KP $end
$var wire 16 Z" b [15:0] $end
$var wire 16 [" a [15:0] $end
$var reg 32 \" full [31:0] $end
$var reg 16 ]" result [15:0] $end
$var reg 32 ^" shifted [31:0] $end
$upscope $end
$scope module QP $end
$var wire 16 _" b [15:0] $end
$var wire 16 `" a [15:0] $end
$var reg 32 a" full [31:0] $end
$var reg 16 b" result [15:0] $end
$var reg 32 c" shifted [31:0] $end
$upscope $end
$scope module SCORE $end
$var wire 16 d" a [15:0] $end
$var wire 16 e" b [15:0] $end
$var reg 32 f" full [31:0] $end
$var reg 16 g" result [15:0] $end
$var reg 32 h" shifted [31:0] $end
$upscope $end
$scope module VP $end
$var wire 16 i" b [15:0] $end
$var wire 16 j" a [15:0] $end
$var reg 32 k" full [31:0] $end
$var reg 16 l" result [15:0] $end
$var reg 32 m" shifted [31:0] $end
$upscope $end
$scope module WV $end
$var wire 16 n" a [15:0] $end
$var wire 16 o" b [15:0] $end
$var reg 32 p" full [31:0] $end
$var reg 16 q" result [15:0] $end
$var reg 32 r" shifted [31:0] $end
$upscope $end
$upscope $end
$scope module OUTPROJ $end
$var wire 16 s" a [15:0] $end
$var wire 16 t" b [15:0] $end
$var reg 32 u" full [31:0] $end
$var reg 16 v" result [15:0] $end
$var reg 32 w" shifted [31:0] $end
$upscope $end
$upscope $end
$scope module FFN $end
$var wire 16 x" w1 [15:0] $end
$var wire 16 y" w2 [15:0] $end
$var wire 16 z" y_out [15:0] $end
$var wire 16 {" x_in [15:0] $end
$var wire 16 |" h [15:0] $end
$var wire 16 }" act [15:0] $end
$scope module L1 $end
$var wire 16 ~" b [15:0] $end
$var wire 16 !# a [15:0] $end
$var reg 32 "# full [31:0] $end
$var reg 16 ## result [15:0] $end
$var reg 32 $# shifted [31:0] $end
$upscope $end
$scope module L2 $end
$var wire 16 %# a [15:0] $end
$var wire 16 &# b [15:0] $end
$var reg 32 '# full [31:0] $end
$var reg 16 (# result [15:0] $end
$var reg 32 )# shifted [31:0] $end
$upscope $end
$upscope $end
$scope module LN1 $end
$var wire 1 # clk $end
$var wire 1 $ rst $end
$var wire 1 *# valid_in $end
$var wire 16 +# x_in [15:0] $end
$var reg 16 ,# y_out [15:0] $end
$upscope $end
$scope module LN2 $end
$var wire 1 # clk $end
$var wire 1 $ rst $end
$var wire 1 -# valid_in $end
$var wire 16 .# x_in [15:0] $end
$var reg 16 /# y_out [15:0] $end
$upscope $end
$upscope $end
$upscope $end
$enddefinitions $end
#0
$dumpvars
bx /#
bx .#
1-#
bx ,#
b0 +#
1*#
bx )#
bx (#
bx '#
b10000000 &#
bx %#
bx $#
bx ##
bx "#
bx !#
b10000000 ~"
bx }"
bx |"
bx {"
bx z"
b10000000 y"
b10000000 x"
bx w"
bx v"
bx u"
b10000000 t"
bx s"
bx r"
bx q"
bx p"
bx o"
bx n"
bx m"
bx l"
bx k"
bx j"
b10000000 i"
bx h"
bx g"
bx f"
bx e"
bx d"
bx c"
bx b"
bx a"
bx `"
b10000000 _"
bx ^"
bx ]"
bx \"
bx ["
b10000000 Z"
b100000 Y"
bx X"
bx W"
1V"
bx U"
bx T"
bx S"
bx R"
bx Q"
bx P"
bx O"
bx N"
bx M"
bx L"
bx K"
bx J"
bx I"
bx H"
b10000000 G"
bx F"
bx E"
bx D"
bx C"
bx B"
bx A"
bx @"
bx ?"
bx >"
b10000000 ="
bx <"
bx ;"
bx :"
bx 9"
b10000000 8"
b100000 7"
bx 6"
bx 5"
14"
bx 3"
bx 2"
bx 1"
bx 0"
bx /"
bx ."
bx -"
bx ,"
bx +"
bx *"
bx )"
bx ("
bx '"
bx &"
b10000000 %"
bx $"
bx #"
bx ""
bx !"
bx ~
bx }
bx |
bx {
bx z
b10000000 y
bx x
bx w
bx v
bx u
b10000000 t
b100000 s
bx r
bx q
1p
bx o
bx n
bx m
bx l
bx k
bx j
bx i
bx h
bx g
bx f
bx e
bx d
bx c
bx b
b10000000 a
bx `
bx _
bx ^
bx ]
bx \
bx [
bx Z
bx Y
bx X
b10000000 W
bx V
bx U
bx T
bx S
b10000000 R
b100000 Q
bx P
bx O
1N
bx M
bx L
bx K
bx J
bx I
bx H
bx G
bx F
bx E
bx D
bx C
bx B
bx A
b10000000000000001000000000000000100000000000000010000000 @
b10000000000000001000000000000000100000000000000010000000 ?
b10000000000000001000000000000000100000000000000010000000 >
b10000000 =
bx <
bx ;
bx :
bx 9
bx 8
bx 7
bx 6
bx 5
bx 4
b0 3
b10000000000000001000000000000000100000000000000010000000 2
b10000000000000001000000000000000100000000000000010000000 1
b10000000000000001000000000000000100000000000000010000000 0
b10000000 /
b10000000 .
b10000000 -
bx ,
b10000000000000001000000000000000100000000000000010000000 +
b10000000000000001000000000000000100000000000000010000000 *
b10000000000000001000000000000000100000000000000010000000 )
b10000000 (
b10000000 '
b10000000 &
b0 %
1$
0#
b0 "
bx !
$end
#5000
b0 C
b0 v"
b0 w"
b0 u"
b0 D
b0 s"
b0 !
b0 4
b0 <
b0 :
b100 H
b0 F
b0 7
b0 z"
b0 (#
b0 )#
b0 '#
b0 _
b0 `
b0 ^
b0 #"
b0 $"
b0 ""
b0 E"
b0 F"
b0 D"
b0 g"
b0 h"
b0 f"
b0 i
b0 j
b0 h
b0 -"
b0 ."
b0 ,"
b0 O"
b0 P"
b0 N"
b0 q"
b0 r"
b0 p"
b0 }"
b0 %#
b0 P
b0 U
b0 V
b0 T
b0 Z
b0 \
b0 [
b0 Y
b0 O
b0 d
b0 e
b0 c
b0 r
b0 w
b0 x
b0 v
b0 |
b0 ~
b0 }
b0 {
b0 q
b0 ("
b0 )"
b0 '"
b0 6"
b0 ;"
b0 <"
b0 :"
b0 @"
b0 B"
b0 A"
b0 ?"
b0 5"
b0 J"
b0 K"
b0 I"
b0 X"
b0 ]"
b0 ^"
b0 \"
b0 b"
b0 d"
b0 c"
b0 a"
b0 W"
b0 l"
b0 m"
b0 k"
b0 ,
b0 .#
b0 ;
b0 9
b0 J
b0 ]
b0 L
b0 g
b0 l
b0 !"
b0 n
b0 +"
b0 0"
b0 C"
b0 2"
b0 M"
b0 R"
b0 e"
b0 T"
b0 o"
b0 B
b0 K
b0 m
b0 1"
b0 S"
b0 I
b0 f
b0 k
b0 *"
b0 /"
b0 L"
b0 Q"
b0 n"
b0 |"
b0 ##
b0 $#
b0 "#
b0 5
b0 A
b0 S
b0 X
b0 b
b0 u
b0 z
b0 &"
b0 9"
b0 >"
b0 H"
b0 ["
b0 `"
b0 j"
b0 ,#
b0 8
b0 E
b0 G
b0 M
b0 o
b0 3"
b0 U"
b0 6
b0 {"
b0 !#
b0 /#
1#
#10000
0#
#15000
1#
#20000
0#
#25000
1#
#30000
0#
0$
#35000
b1000000 I
b1000000 f
b1000000 k
b1000000 *"
b1000000 /"
b1000000 L"
b1000000 Q"
b1000000 n"
b1 G
b1 M
b1 o
b1 3"
b1 U"
1#
#40000
0#
#45000
b1 B
b1 K
b1 m
b1 1"
b1 S"
b10 G
b10 M
b10 o
b10 3"
b10 U"
1#
#50000
b11111111 !
b11111111 4
b11111111 <
b11111111 :
b11111111 ,
b11111111 .#
b11111111 ;
b11111111 9
0#
b11111111 "
b11111111 3
b11111111 +#
b11111111 %
#55000
b100111110 !
b100111110 4
b100111110 <
b100111110 :
b111111 7
b111111 z"
b111111 (#
b111111 )#
b11111110000000 '#
b1111111 }"
b1111111 %#
b1111111 |"
b1111111 ##
b1111111 $#
b111111110000000 "#
b10 B
b10 K
b10 m
b10 1"
b10 S"
b1111111 P
b1111111 U
b1111111 V
b111111110000000 T
b1111111 Z
b1111111 \
b1111111 [
b111111110000000 Y
b1111111 O
b1111111 d
b1111111 e
b111111110000000 c
b1111111 r
b1111111 w
b1111111 x
b111111110000000 v
b1111111 |
b1111111 ~
b1111111 }
b111111110000000 {
b1111111 q
b1111111 ("
b1111111 )"
b111111110000000 '"
b1111111 6"
b1111111 ;"
b1111111 <"
b111111110000000 :"
b1111111 @"
b1111111 B"
b1111111 A"
b111111110000000 ?"
b1111111 5"
b1111111 J"
b1111111 K"
b111111110000000 I"
b1111111 X"
b1111111 ]"
b1111111 ^"
b111111110000000 \"
b1111111 b"
b1111111 d"
b1111111 c"
b111111110000000 a"
b1111111 W"
b1111111 l"
b1111111 m"
b111111110000000 k"
b11111111 6
b11111111 {"
b11111111 !#
b11111111 /#
b11 G
b11 M
b11 o
b11 3"
b11 U"
b11111111 5
b11111111 A
b11111111 S
b11111111 X
b11111111 b
b11111111 u
b11111111 z
b11111111 &"
b11111111 9"
b11111111 >"
b11111111 H"
b11111111 ["
b11111111 `"
b11111111 j"
b11111111 ,#
1#
#60000
0#
#65000
b11 C
b11 v"
b11 w"
b1110000000 u"
b1111 I
b1111 f
b1111 k
b1111 *"
b1111 /"
b1111 L"
b1111 Q"
b1111 n"
b111 D
b111 s"
b11100 F
b100 H
b111111 _
b111111 `
b11111100000001 ^
b111 i
b111 j
b11101110001 h
b111111 #"
b111111 $"
b11111100000001 ""
b111 -"
b111 ."
b11101110001 ,"
b111111 E"
b111111 F"
b11111100000001 D"
b111 O"
b111 P"
b11101110001 N"
b111111 g"
b111111 h"
b11111100000001 f"
b111 q"
b111 r"
b11101110001 p"
b1111111 J
b1111111 ]
b1111111 L
b1111111 g
b1111111 l
b1111111 !"
b1111111 n
b1111111 +"
b1111111 0"
b1111111 C"
b1111111 2"
b1111111 M"
b1111111 R"
b1111111 e"
b1111111 T"
b1111111 o"
b11 B
b11 K
b11 m
b11 1"
b11 S"
b100 G
b100 M
b100 o
b100 3"
b100 U"
1#
#70000
0#
#75000
b101000001 !
b101000001 4
b101000001 <
b101000001 :
b100 B
b100 K
b100 m
b100 1"
b100 S"
b100000010 ,
b100000010 .#
b100000010 ;
b100000010 9
b101 G
b101 M
b101 o
b101 3"
b101 U"
b11 8
b11 E
1#
#80000
0#
#85000
b101000010 !
b101000010 4
b101000010 <
b101000010 :
b1000000 7
b1000000 z"
b1000000 (#
b1000000 )#
b100000010000000 '#
b10000001 }"
b10000001 %#
b101 B
b101 K
b101 m
b101 1"
b101 S"
b10000001 |"
b10000001 ##
b10000001 $#
b1000000100000000 "#
b110 G
b110 M
b110 o
b110 3"
b110 U"
b100000010 6
b100000010 {"
b100000010 !#
b100000010 /#
1#
#90000
0#
#95000
b110 B
b110 K
b110 m
b110 1"
b110 S"
b111 G
b111 M
b111 o
b111 3"
b111 U"
1#
#100000
0#
#105000
b111 B
b111 K
b111 m
b111 1"
b111 S"
b1000 G
b1000 M
b1000 o
b1000 3"
b1000 U"
1#
#110000
0#
#115000
b1000 B
b1000 K
b1000 m
b1000 1"
b1000 S"
b1001 G
b1001 M
b1001 o
b1001 3"
b1001 U"
1#
#120000
0#
#125000
b1001 B
b1001 K
b1001 m
b1001 1"
b1001 S"
b1010 G
b1010 M
b1010 o
b1010 3"
b1010 U"
1#
#130000
0#
#135000
b1010 B
b1010 K
b1010 m
b1010 1"
b1010 S"
b1011 G
b1011 M
b1011 o
b1011 3"
b1011 U"
1#
#140000
0#
#145000
b1011 B
b1011 K
b1011 m
b1011 1"
b1011 S"
b1100 G
b1100 M
b1100 o
b1100 3"
b1100 U"
1#
#150000
b11000011 !
b11000011 4
b11000011 <
b11000011 :
b10000011 ,
b10000011 .#
b10000011 ;
b10000011 9
0#
b10000000 "
b10000000 3
b10000000 +#
b10000000 %
#155000
b1 C
b1 v"
b1 w"
b110000000 u"
b11 D
b11 s"
b100 H
b1100 F
b11 i
b11 j
b1101111001 h
b11 -"
b11 ."
b1101111001 ,"
b11 O"
b11 P"
b1101111001 N"
b11 q"
b11 r"
b1101111001 p"
b111 I
b111 f
b111 k
b111 *"
b111 /"
b111 L"
b111 Q"
b111 n"
b10100011 !
b10100011 4
b10100011 <
b10100011 :
b100000 7
b100000 z"
b100000 (#
b100000 )#
b10000010000000 '#
b1000001 }"
b1000001 %#
b11111 _
b11111 `
b1111111000000 ^
b11111 #"
b11111 $"
b1111111000000 ""
b11111 E"
b11111 F"
b1111111000000 D"
b11111 g"
b11111 h"
b1111111000000 f"
b1000001 |"
b1000001 ##
b1000001 $#
b100000110000000 "#
b1100 B
b1100 K
b1100 m
b1100 1"
b1100 S"
b1000000 P
b1000000 U
b1000000 V
b100000000000000 T
b1000000 Z
b1000000 \
b1000000 [
b100000000000000 Y
b1000000 O
b1000000 d
b1000000 e
b100000000000000 c
b1000000 r
b1000000 w
b1000000 x
b100000000000000 v
b1000000 |
b1000000 ~
b1000000 }
b100000000000000 {
b1000000 q
b1000000 ("
b1000000 )"
b100000000000000 '"
b1000000 6"
b1000000 ;"
b1000000 <"
b100000000000000 :"
b1000000 @"
b1000000 B"
b1000000 A"
b100000000000000 ?"
b1000000 5"
b1000000 J"
b1000000 K"
b100000000000000 I"
b1000000 X"
b1000000 ]"
b1000000 ^"
b100000000000000 \"
b1000000 b"
b1000000 d"
b1000000 c"
b100000000000000 a"
b1000000 W"
b1000000 l"
b1000000 m"
b100000000000000 k"
b10000011 6
b10000011 {"
b10000011 !#
b10000011 /#
b1101 G
b1101 M
b1101 o
b1101 3"
b1101 U"
b10000000 5
b10000000 A
b10000000 S
b10000000 X
b10000000 b
b10000000 u
b10000000 z
b10000000 &"
b10000000 9"
b10000000 >"
b10000000 H"
b10000000 ["
b10000000 `"
b10000000 j"
b10000000 ,#
1#
#160000
0#
#165000
b100 I
b100 f
b100 k
b100 *"
b100 /"
b100 L"
b100 Q"
b100 n"
b0 C
b0 v"
b0 w"
b10000000 u"
b1 D
b1 s"
b100 H
b100 F
b10000 _
b10000 `
b1000000000000 ^
b1 i
b1 j
b100000000 h
b10000 #"
b10000 $"
b1000000000000 ""
b1 -"
b1 ."
b100000000 ,"
b10000 E"
b10000 F"
b1000000000000 D"
b1 O"
b1 P"
b100000000 N"
b10000 g"
b10000 h"
b1000000000000 f"
b1 q"
b1 r"
b100000000 p"
b10100001 !
b10100001 4
b10100001 <
b10100001 :
b1000000 J
b1000000 ]
b1000000 L
b1000000 g
b1000000 l
b1000000 !"
b1000000 n
b1000000 +"
b1000000 0"
b1000000 C"
b1000000 2"
b1000000 M"
b1000000 R"
b1000000 e"
b1000000 T"
b1000000 o"
b1101 B
b1101 K
b1101 m
b1101 1"
b1101 S"
b10000001 ,
b10000001 .#
b10000001 ;
b10000001 9
b1110 G
b1110 M
b1110 o
b1110 3"
b1110 U"
b1 8
b1 E
1#
#170000
0#
#175000
b10000000000000 '#
b1000000 }"
b1000000 %#
b10100000 !
b10100000 4
b10100000 <
b10100000 :
b1000000 |"
b1000000 ##
b1000000 $#
b100000010000000 "#
b1110 B
b1110 K
b1110 m
b1110 1"
b1110 S"
b10000000 ,
b10000000 .#
b10000000 ;
b10000000 9
b10000001 6
b10000001 {"
b10000001 !#
b10000001 /#
b1111 G
b1111 M
b1111 o
b1111 3"
b1111 U"
b0 8
b0 E
1#
#180000
0#
#185000
b1111 B
b1111 K
b1111 m
b1111 1"
b1111 S"
b100000000000000 "#
b10000 G
b10000 M
b10000 o
b10000 3"
b10000 U"
b10000000 6
b10000000 {"
b10000000 !#
b10000000 /#
1#
#190000
0#
#195000
b10000 B
b10000 K
b10000 m
b10000 1"
b10000 S"
b10001 G
b10001 M
b10001 o
b10001 3"
b10001 U"
1#
#200000
0#
#205000
b10001 B
b10001 K
b10001 m
b10001 1"
b10001 S"
b10010 G
b10010 M
b10010 o
b10010 3"
b10010 U"
1#
#210000
0#
#215000
b10010 B
b10010 K
b10010 m
b10010 1"
b10010 S"
b10011 G
b10011 M
b10011 o
b10011 3"
b10011 U"
1#
#220000
0#
#225000
b10011 B
b10011 K
b10011 m
b10011 1"
b10011 S"
b10100 G
b10100 M
b10100 o
b10100 3"
b10100 U"
1#
#230000
0#
#235000
b10100 B
b10100 K
b10100 m
b10100 1"
b10100 S"
b10101 G
b10101 M
b10101 o
b10101 3"
b10101 U"
1#
#240000
0#
#245000
b10101 B
b10101 K
b10101 m
b10101 1"
b10101 S"
b10110 G
b10110 M
b10110 o
b10110 3"
b10110 U"
1#
#250000
b1100000 !
b1100000 4
b1100000 <
b1100000 :
b1000000 ,
b1000000 .#
b1000000 ;
b1000000 9
0#
b1000000 "
b1000000 3
b1000000 +#
b1000000 %
#255000
b0 u"
b0 D
b0 s"
b100 H
b0 F
b0 i
b0 j
b10000000 h
b0 -"
b0 ."
b10000000 ,"
b0 O"
b0 P"
b10000000 N"
b0 q"
b0 r"
b10000000 p"
b10 I
b10 f
b10 k
b10 *"
b10 /"
b10 L"
b10 Q"
b10 n"
b1010000 !
b1010000 4
b1010000 <
b1010000 :
b10000 7
b10000 z"
b10000 (#
b10000 )#
b1000000000000 '#
b100000 }"
b100000 %#
b1000 _
b1000 `
b100000000000 ^
b1000 #"
b1000 $"
b100000000000 ""
b1000 E"
b1000 F"
b100000000000 D"
b1000 g"
b1000 h"
b100000000000 f"
b100000 |"
b100000 ##
b100000 $#
b10000000000000 "#
b10110 B
b10110 K
b10110 m
b10110 1"
b10110 S"
b100000 P
b100000 U
b100000 V
b10000000000000 T
b100000 Z
b100000 \
b100000 [
b10000000000000 Y
b100000 O
b100000 d
b100000 e
b10000000000000 c
b100000 r
b100000 w
b100000 x
b10000000000000 v
b100000 |
b100000 ~
b100000 }
b10000000000000 {
b100000 q
b100000 ("
b100000 )"
b10000000000000 '"
b100000 6"
b100000 ;"
b100000 <"
b10000000000000 :"
b100000 @"
b100000 B"
b100000 A"
b10000000000000 ?"
b100000 5"
b100000 J"
b100000 K"
b10000000000000 I"
b100000 X"
b100000 ]"
b100000 ^"
b10000000000000 \"
b100000 b"
b100000 d"
b100000 c"
b10000000000000 a"
b100000 W"
b100000 l"
b100000 m"
b10000000000000 k"
b1000000 6
b1000000 {"
b1000000 !#
b1000000 /#
b10111 G
b10111 M
b10111 o
b10111 3"
b10111 U"
b1000000 5
b1000000 A
b1000000 S
b1000000 X
b1000000 b
b1000000 u
b1000000 z
b1000000 &"
b1000000 9"
b1000000 >"
b1000000 H"
b1000000 ["
b1000000 `"
b1000000 j"
b1000000 ,#
1#
#260000
0#
#265000
b1 I
b1 f
b1 k
b1 *"
b1 /"
b1 L"
b1 Q"
b1 n"
b100 _
b100 `
b10000000000 ^
b100000 h
b100 #"
b100 $"
b10000000000 ""
b100000 ,"
b100 E"
b100 F"
b10000000000 D"
b100000 N"
b100 g"
b100 h"
b10000000000 f"
b100000 p"
b100000 J
b100000 ]
b100000 L
b100000 g
b100000 l
b100000 !"
b100000 n
b100000 +"
b100000 0"
b100000 C"
b100000 2"
b100000 M"
b100000 R"
b100000 e"
b100000 T"
b100000 o"
b10111 B
b10111 K
b10111 m
b10111 1"
b10111 S"
b11000 G
b11000 M
b11000 o
b11000 3"
b11000 U"
1#
#270000
0#
#275000
b11000 B
b11000 K
b11000 m
b11000 1"
b11000 S"
b11001 G
b11001 M
b11001 o
b11001 3"
b11001 U"
1#
#280000
0#
#285000
b11001 B
b11001 K
b11001 m
b11001 1"
b11001 S"
b11010 G
b11010 M
b11010 o
b11010 3"
b11010 U"
1#
#290000
0#
#295000
b11010 B
b11010 K
b11010 m
b11010 1"
b11010 S"
b11011 G
b11011 M
b11011 o
b11011 3"
b11011 U"
1#
#300000
0#
#305000
b11011 B
b11011 K
b11011 m
b11011 1"
b11011 S"
b11100 G
b11100 M
b11100 o
b11100 3"
b11100 U"
1#
#310000
0#
#315000
b11100 B
b11100 K
b11100 m
b11100 1"
b11100 S"
b11101 G
b11101 M
b11101 o
b11101 3"
b11101 U"
1#
#320000
0#
#325000
b11101 B
b11101 K
b11101 m
b11101 1"
b11101 S"
b11110 G
b11110 M
b11110 o
b11110 3"
b11110 U"
1#
#330000
0#
#335000
b11110 B
b11110 K
b11110 m
b11110 1"
b11110 S"
b11111 G
b11111 M
b11111 o
b11111 3"
b11111 U"
1#
#340000
0#
#345000
1#
#350000
b110000 !
b110000 4
b110000 <
b110000 :
b100000 ,
b100000 .#
b100000 ;
b100000 9
0#
b100000 "
b100000 3
b100000 +#
b100000 %
#355000
b0 h
b0 ,"
b0 N"
b0 p"
b0 I
b0 f
b0 k
b0 *"
b0 /"
b0 L"
b0 Q"
b0 n"
b101000 !
b101000 4
b101000 <
b101000 :
b1000 7
b1000 z"
b1000 (#
b1000 )#
b100000000000 '#
b10000 }"
b10000 %#
b10 _
b10 `
b1000000000 ^
b10 #"
b10 $"
b1000000000 ""
b10 E"
b10 F"
b1000000000 D"
b10 g"
b10 h"
b1000000000 f"
b10000 |"
b10000 ##
b10000 $#
b1000000000000 "#
b10000 P
b10000 U
b10000 V
b1000000000000 T
b10000 Z
b10000 \
b10000 [
b1000000000000 Y
b10000 O
b10000 d
b10000 e
b1000000000000 c
b10000 r
b10000 w
b10000 x
b1000000000000 v
b10000 |
b10000 ~
b10000 }
b1000000000000 {
b10000 q
b10000 ("
b10000 )"
b1000000000000 '"
b10000 6"
b10000 ;"
b10000 <"
b1000000000000 :"
b10000 @"
b10000 B"
b10000 A"
b1000000000000 ?"
b10000 5"
b10000 J"
b10000 K"
b1000000000000 I"
b10000 X"
b10000 ]"
b10000 ^"
b1000000000000 \"
b10000 b"
b10000 d"
b10000 c"
b1000000000000 a"
b10000 W"
b10000 l"
b10000 m"
b1000000000000 k"
b100000 6
b100000 {"
b100000 !#
b100000 /#
b100000 5
b100000 A
b100000 S
b100000 X
b100000 b
b100000 u
b100000 z
b100000 &"
b100000 9"
b100000 >"
b100000 H"
b100000 ["
b100000 `"
b100000 j"
b100000 ,#
1#
#360000
0#
#365000
1#
#370000
0#
#375000
1#
#380000
0#
#385000
1#
#390000
0#
#395000
1#
#400000
0#
#405000
1#
#410000
0#
#415000
1#
#420000
0#
#425000
1#
#430000
0#
#435000
1#
#440000
0#
#445000
1#
#450000
b11000 !
b11000 4
b11000 <
b11000 :
b10000 ,
b10000 .#
b10000 ;
b10000 9
0#
b10000 "
b10000 3
b10000 +#
b10000 %
